<svg xmlns="http://www.w3.org/2000/svg" width="10.818" height="13" viewBox="0 0 10.818 13">
  <g id="map-pin" transform="translate(-2.5 -0.5)">
    <path id="Path_249" data-name="Path 249" d="M12.818,5.909C12.818,9.727,7.909,13,7.909,13S3,9.727,3,5.909a4.909,4.909,0,1,1,9.818,0Z" fill="none" stroke="#fff" stroke-linecap="round" stroke-linejoin="round" stroke-width="1"/>
    <circle id="Ellipse_117" data-name="Ellipse 117" cx="1.636" cy="1.636" r="1.636" transform="translate(6.273 4.273)" fill="none" stroke="#fff" stroke-linecap="round" stroke-linejoin="round" stroke-width="1"/>
  </g>
</svg>
